<?xml version="1.0" encoding="UTF-8"?>
<!DOCTYPE svg PUBLIC "-//W3C//DTD SVG 1.1//EN" "http://www.w3.org/Graphics/SVG/1.1/DTD/svg11.dtd">
<!-- Creator: CorelDRAW X7 -->
<svg xmlns="http://www.w3.org/2000/svg" xml:space="preserve" width="300px" height="70px" version="1.1" shape-rendering="geometricPrecision" text-rendering="geometricPrecision" image-rendering="optimizeQuality" fill-rule="evenodd" clip-rule="evenodd"
viewBox="0 0 265 62"
 xmlns:xlink="http://www.w3.org/1999/xlink"
 xmlns:svg="http://www.w3.org/2000/svg">
 <g id="Layer_x0020_1">
  <metadata id="CorelCorpID_0Corel-Layer"/>
  <rect fill="none" width="264.706" height="61.7635"/>
  <g id="_796777304">
   <g id="g11">
    <g id="g2510">
     <path id="path53" fill="#009E4D" fill-rule="nonzero" d="M75 15c-4,-1 -6,-2 -8,-2 -2,0 -3,1 -3,2 0,4 12,3 12,11 0,4 -4,7 -9,7 -5,0 -7,-1 -9,-2l0 -5c3,2 6,3 8,3 2,0 4,-1 4,-3 0,-3 -12,-2 -12,-10 0,-4 3,-7 9,-7 2,0 5,0 8,2l0 4z"/>
     <path id="path55" fill="#009E4D" fill-rule="nonzero" d="M91 32c-2,1 -3,1 -5,1 -6,0 -9,-3 -9,-8 0,-5 4,-9 9,-9 1,0 4,1 5,1l0 4c-1,-1 -3,-1 -4,-1 -3,0 -5,2 -5,5 0,3 2,4 5,4 1,0 2,0 4,-1l0 4z"/>
     <path id="path57" fill="#009E4D" fill-rule="nonzero" d="M135 23c0,-2 2,-4 4,-4 2,0 3,2 3,4l-7 0zm3 -7c-5,0 -8,4 -8,9 0,5 3,8 9,8 1,0 4,0 7,-2l0 -3c-2,1 -4,2 -6,2 -3,0 -5,-2 -5,-4l12 0c0,-6 -4,-10 -9,-10z"/>
     <polygon id="path59" fill="#009E4D" fill-rule="nonzero" points="148,33 153,33 153,17 148,17 "/>
     <path id="path61" fill="#009E4D" fill-rule="nonzero" d="M167 28c-1,1 -2,2 -3,2 -2,0 -3,-2 -3,-5 0,-3 1,-5 4,-5 0,0 2,0 2,1l0 7zm0 -19l0 8c-1,0 -2,-1 -4,-1 -4,0 -8,4 -8,9 0,4 4,8 8,8 2,0 3,0 4,-2l0 2 5 0 0 -24 -5 0z"/>
     <path id="path63" fill="#009E4D" fill-rule="nonzero" d="M180 23c0,-2 1,-4 3,-4 2,0 4,2 4,4l-7 0zm3 -7c-5,0 -8,4 -8,9 0,5 3,8 9,8 1,0 4,0 7,-2l0 -3c-2,1 -4,2 -6,2 -3,0 -5,-2 -5,-4l11 0c0,-6 -3,-10 -8,-10z"/>
     <g id="g65">
      <path id="path73" fill="#009E4D" fill-rule="nonzero" d="M199 21l0 0c1,-3 3,-5 5,-5 1,0 2,1 3,2l-1 4c-2,-1 -2,-1 -3,-1 -2,0 -3,2 -4,5l0 7 -5 0 0 -16 5 0 0 4z"/>
      <path id="path75" fill="#009E4D" fill-rule="nonzero" d="M154 10c0,1 -1,3 -2,4 -2,1 -3,0 -4,-1 0,-1 1,-3 2,-4 2,-1 3,0 4,1z"/>
     </g>
     <path id="path77" fill="#009E4D" fill-rule="nonzero" d="M109 23c0,-5 -2,-7 -5,-7 -2,0 -4,1 -5,3l0 0 0 -10 -5 0 0 24 5 0 0 -10c1,-2 2,-3 3,-3 1,0 2,1 2,4l0 5c2,-1 4,-1 5,-1l0 -5z"/>
     <path id="path79" fill="#009E4D" fill-rule="nonzero" d="M122 16c-2,0 -4,1 -5,3l0 -2 -5 0 0 11c2,0 4,1 5,2l0 -8c1,-2 2,-2 3,-2 2,0 3,1 3,3l0 10 5 0 0 -10c0,-5 -3,-7 -6,-7z"/>
     <polygon id="path81" fill="#009E4D" fill-rule="nonzero" points="131,37 125,37 125,41 130,41 130,43 125,43 125,47 131,47 131,49 123,49 123,35 131,35 "/>
     <polygon id="path83" fill="#009E4D" fill-rule="nonzero" points="135,49 137,49 137,35 135,35 "/>
     <path id="path85" fill="#009E4D" fill-rule="nonzero" d="M146 41c1,0 2,1 2,3l-4 0c0,-2 1,-3 2,-3zm-2 4l6 0c0,-3 -2,-5 -4,-5 -3,0 -4,2 -4,5 0,2 1,4 4,4 2,0 3,0 4,-1l0 -1c-1,0 -2,1 -3,1 -2,0 -3,-1 -3,-3z"/>
     <path id="path87" fill="#009E4D" fill-rule="nonzero" d="M162 43c-1,-1 -2,-1 -3,-1 -2,0 -3,1 -3,3 0,2 1,3 3,3 1,0 2,-1 3,-1l0 2c-1,0 -2,0 -3,0 -3,0 -5,-1 -5,-4 0,-3 2,-5 5,-5 1,0 2,0 3,1l0 2z"/>
     <path id="path89" fill="#009E4D" fill-rule="nonzero" d="M170 40l3 0 0 2 -3 0 0 4c0,1 0,2 1,2 1,0 1,0 2,-1l0 2c-1,0 -2,0 -2,0 -2,0 -3,-1 -3,-2l0 -5 -2 0 0 0 4 -4 0 2z"/>
     <path id="path91" fill="#009E4D" fill-rule="nonzero" d="M179 40l0 2 0 0c1,-1 2,-2 3,-2 1,0 1,0 2,1l-1 2c0,-1 -1,-1 -1,-1 -2,0 -3,1 -3,2l0 5 -1 0 0 -9 1 0z"/>
     <path id="path93" fill="#009E4D" fill-rule="nonzero" d="M202 43c-1,-1 -1,-1 -2,-1 -2,0 -3,1 -3,3 0,2 1,3 3,3 1,0 2,-1 3,-1l0 2c-1,0 -2,0 -3,0 -3,0 -5,-1 -5,-4 0,-3 2,-5 5,-5 1,0 2,0 2,1l0 2z"/>
     <polygon id="path95" fill="#009E4D" fill-rule="nonzero" points="189,49 191,49 191,40 189,40 "/>
     <g id="g97">
      <path id="path105" fill="#009E4D" fill-rule="nonzero" d="M191 37c0,0 0,1 -1,1 0,1 -1,0 -1,0 0,0 0,-1 0,-1 1,-1 2,-1 2,0z"/>
      <path id="path107" fill="#009E4D" fill-rule="nonzero" d="M111 38c0,0 -1,0 -1,0 0,0 0,0 0,0l-1 6c-1,2 -3,4 -7,4l-5 0 1 -3 3 0c1,0 1,0 1,0 0,0 0,0 0,0l2 -6c0,-2 2,-4 6,-4l4 0 0 3 -3 0zm1 3l1 -2 4 0c1,-2 1,-5 -1,-7 -4,-3 -11,-2 -16,3 -1,1 -2,2 -3,3l3 0 0 2 -4 0c0,0 -1,1 -1,1l4 0 0 2 -4 0c-1,3 -1,6 1,8 4,3 11,2 16,-3 1,-1 2,-2 3,-3l-4 0 1 -2 4 0c0,0 1,-1 1,-2l-5 0z"/>
     </g>
    </g>
   </g>
  </g>
 </g>
</svg>
